{
  "defaultLanguage": "en",
  "languages": [
    {
      "code": "en",
      "language": "English"
    },
    {
      "code": "fr",
      "language": "Français"
    },
    {
      "code": "fr-CA",
      "language": "Français (Canada)"
    },
    {
      "code": "es",
      "language": "Español"
    },
    {
      "code": "zh",
      "language": "中文"
    },
    {
      "code": "tr",
      "language": "Türk"
    }
  ]
}
